{
  "name": "TrackableCompanies",
  "base": "PersistedModel",
  "idInjection": true,
  "options": {
    "validateUpsert": true
  },
  "properties": {
    "companyId": {
      "type": "string",
      "required": true
    },
    "userTracking": {
      "type": "number",
      "required": true,
      "default": 1
    },
    "BSECode": {
      "type": "string",
      "required": true
    },
    "NSECode": {
      "type": "string",
      "required": true
    },
    "trackingInterval": {
      "type": "number",
      "required": true,
      "default": 15
    },
    "lastTrackTime": {
      "type": "string"
    },
    "nextTrackTime": {
      "type": "string"
    },
    "BSESymbol": {
      "type": "string"
    },
    "NSESymbol": {
      "type": "string"
    },
    "activeAlert": {
      "type": "number",
      "default": 0
    }
  },
  "validations": [],
  "relations": {
    "companies": {
      "type": "belongsTo",
      "model": "Companies",
      "foreignKey": "companyId"
    }
  },
  "acls": [
    {
      "accessType": "*",
      "principalType": "ROLE",
      "principalId": "$everyone",
      "permission": "DENY"
    },
    {
      "accessType": "*",
      "principalType": "ROLE",
      "principalId": "admin",
      "permission": "ALLOW"
    }
  ],
  "methods": {}
}
