{
  "name": "UserCompanies",
  "base": "PersistedModel",
  "idInjection": true,
  "options": {
    "validateUpsert": true
  },
  "properties": {
    "userId": {
      "type": "string",
      "required": true
    },
    "companyId": {
      "type": "string",
      "required": true
    },
    "notify": {
      "type": [
        "string"
      ],
      "default": []
    },
    "public": {
      "type": "boolean",
      "default": false
    },
    "createdOn": {
      "type": "date",
      "default": "$now"
    },
    "recommendedPrice": {
      "type": "number",
      "default": 0
    }
  },
  "validations": [],
  "relations": {
    "users": {
      "type": "belongsTo",
      "model": "Users",
      "foreignKey": "userId"
    },
    "companies": {
      "type": "belongsTo",
      "model": "Companies",
      "foreignKey": "companyId"
    },
    "alerts": {
      "type": "hasMany",
      "model": "Alerts",
      "foreignKey": "userCompanyId"
    }
  },
  "acls": [
    {
      "accessType": "*",
      "principalType": "ROLE",
      "principalId": "$everyone",
      "permission": "DENY"
    },
    {
      "accessType": "*",
      "principalType": "ROLE",
      "principalId": "$owner",
      "permission": "ALLOW"
    },
    {
      "accessType": "*",
      "principalType": "ROLE",
      "principalId": "admin",
      "permission": "ALLOW"
    },
    {
      "accessType": "EXECUTE",
      "principalType": "ROLE",
      "principalId": "$everyone",
      "permission": "ALLOW",
      "property": "public"
    }
  ],
  "methods": {}
}
